…
The `species_code` function can be called within other `rebird` functions, or the species code 
can be specified directly.


## Sightings at location determined by latitude/longitude

Search for bird occurrences by latitude and longitude point


```r
ebirdgeo(species = species_code('spinus tristis'), lat = 42, lng = -76)
#> American Goldfinch (Spinus tristis): amegfi
#> # A tibble: 45 x 12
#>    speciesCode comName  sciName  locId locName   obsDt howMany   lat   lng
#>    <chr>       <chr>    <chr>    <chr> <chr>     <chr>   <int> <dbl> <dbl>
#>  1 amegfi      America… Spinus … L495… Binghamt… 2018…       1  42.1 -76.0
#>  2 amegfi      America… Spinus … L527… R Tee Go… 2018…       1  42.2 -75.9
#>  3 amegfi      America… Spinus … L795… US-New Y… 2018…       7  42.1 -76.0
#>  4 amegfi      America… Spinus … L978… Murphys … 2018…       5  42.1 -76.0
#>  5 amegfi      America… Spinus … L209… Aquaterr… 2018…       9  42.0 -75.9
#>  6 amegfi      America… Spinus … L320… Hillcres… 2018…       1  42.2 -75.9
#>  7 amegfi      America… Spinus … L285… Camp Sus… 2018…       1  42.0 -75.9
#>  8 amegfi      America… Spinus … L207… Workwalk  2018…       1  42.1 -75.9
#>  9 amegfi      America… Spinus … L519… IBM Glen… 2018…       3  42.1 -76.0
#> 10 amegfi      America… Spinus … L501… William … 2018…       2  42.1 -76.0
#> # ... with 35 more rows, and 3 more variables: obsValid <lgl>,
#> #   obsReviewed <lgl>, locationPrivate <lgl>
```

## Recent observations at a region

Search for bird occurrences by region and species name


```r
ebirdregion(loc = 'US', species = 'btbwar')
#> # A tibble: 1,043 x 12
#>    speciesCode comName  sciName  locId  locName  obsDt howMany   lat   lng
#>    <chr>       <chr>    <chr>    <chr>  <chr>    <chr>   <int> <dbl> <dbl>
#>  1 btbwar      Black-t… Setopha… L1334… Ox Bow … 2018…       1  41.6 -85.9
#>  2 btbwar      Black-t… Setopha… L2785… Blue Sp… 2018…       1  28.9 -81.3
#>  3 btbwar      Black-t… Setopha… L2139… CMCH     2018…       2  39.1 -74.8
#>  4 btbwar      Black-t… Setopha… L1301… Ashland… 2018…       1  39.8 -75.7
#>  5 btbwar      Black-t… Setopha… L1298… Lake On… 2018…       1  40.5 -75.9
#>  6 btbwar      Black-t… Setopha… L5044… John He… 2018…       4  39.9 -75.3
#>  7 btbwar      Black-t… Setopha… L5974… Cape Is… 2018…       1  38.9 -75.0
#>  8 btbwar      Black-t… Setopha… L6960… Dunham … 2018…       1  40.7 -74.6
#>  9 btbwar      Black-t… Setopha… L1657… Black R… 2018…       1  40.2 -75.5
#> 10 btbwar      Black-t… Setopha… L8654… Acadia … 2018…       1  44.3 -68.1
#> # ... with 1,033 more rows, and 3 more variables: obsValid <lgl>,
#> #   obsReviewed <lgl>, locationPrivate <lgl>
```


## Recent observations at hotspots

Search for bird occurrences by a given hotspot


```r
ebirdregion(loc = 'L99381')
#> # A tibble: 63 x 12
#>    speciesCode comName   sciName   locId locName obsDt howMany   lat   lng
#>    <chr>       <chr>     <chr>     <chr> <chr>   <chr>   <int> <dbl> <dbl>
#>  1 cangoo      Canada G… Branta c… L993… Stewar… 2018…      25  42.5 -76.5
#>  2 mallar3     Mallard   Anas pla… L993… Stewar… 2018…      40  42.5 -76.5
#>  3 commer      Common M… Mergus m… L993… Stewar… 2018…      16  42.5 -76.5
#>  4 rocpig      Rock Pig… Columba … L993… Stewar… 2018…       8  42.5 -76.5
#>  5 ribgul      Ring-bil… Larus de… L993… Stewar… 2018…      80  42.5 -76.5
#>  6 hergul      Herring … Larus ar… L993… Stewar… 2018…      25  42.5 -76.5
#>  7 lbbgul      Lesser B… Larus fu… L993… Stewar… 2018…       1  42.5 -76.5
#>  8 gbbgul      Great Bl… Larus ma… L993… Stewar… 2018…       8  42.5 -76.5
#>  9 doccor      Double-c… Phalacro… L993… Stewar… 2018…     600  42.5 -76.5
#> 10 grbher3     Great Bl… Ardea he… L993… Stewar… 2018…       2  42.5 -76.5
#> # ... with 53 more rows, and 3 more variables: obsValid <lgl>,
#> #   obsReviewed <lgl>, locationPrivate <lgl>
```


## Frequency of observations at hotspots or regions

Obtain historical frequencies of bird occurrences by hotspot or region


```r
ebirdfreq(loctype = 'hotspots', loc = 'L196159')
#> # A tibble: 9,072 x 4
#>    comName                     monthQt   frequency sampleSize
#>    <chr>                       <chr>         <dbl>      <dbl>
#>  1 Snow Goose                  January-1     0.           27.
#>  2 Greater White-fronted Goose January-1     0.           27.
#>  3 Cackling Goose              January-1     0.           27.
#>  4 Canada Goose                January-1     0.           27.
#>  5 Cackling/Canada Goose       January-1     0.           27.
#>  6 Trumpeter Swan              January-1     0.           27.
#>  7 Wood Duck                   January-1     0.185        27.
#>  8 Blue-winged Teal            January-1     0.           27.
#>  9 Cinnamon Teal               January-1     0.           27.
#> 10 Blue-winged/Cinnamon Teal   January-1     0.           27.
#> # ... with 9,062 more rows
```

### Recent notable sightings

Search for notable sightings at a given latitude and longitude


```r
ebirdnotable(lat = 42, lng = -70)
#> # A tibble: 773 x 12
#>    speciesCode comName  sciName  locId locName   obsDt howMany   lat   lng
#>    <chr>       <chr>    <chr>    <chr> <chr>     <chr>   <int> <dbl> <dbl>
#>  1 horlar      Horned … Eremoph… L278… Rye Harb… 2018…       1  43.0 -70.7
#>  2 redcro      Red Cro… Loxia c… L207… Moose Hi… 2018…       8  42.1 -71.2
#>  3 ycnher      Yellow-… Nyctana… L382… Lake War… 2018…       1  42.4 -72.6
#>  4 sancra      Sandhil… Antigon… L463… Highland… 2018…       1  43.9 -70.0
#>  5 libher      Little … Egretta… L613… Colt SP   2018…       1  41.7 -71.3
#>  6 eawpew      Eastern… Contopu… L724… 514 Racc… 2018…       1  43.4 -71.8
#>  7 conwar      Connect… Opororn… L464… Westboro… 2018…       1  42.3 -71.6
#>  8 ameoys      America… Haemato… L353… Scarboro… 2018…       2  43.5 -70.3
#>  9 canwar      Canada … Cardell… L594… Marblehe… 2018…       1  42.5 -70.8
#> 10 ycnher      Yellow-… Nyctana… L382… Lake War… 2018…       1  42.4 -72.6
#> # ... with 763 more rows, and 3 more variables: obsValid <lgl>,
#> #   obsReviewed <lgl>, locationPrivate <lgl>
```

or a region


```r
ebirdnotable(locID = 'US-NY-109')
#> # A tibble: 67 x 12
#>    speciesCode comName  sciName  locId  locName  obsDt howMany   lat   lng
#>    <chr>       <chr>    <chr>    <chr>  <chr>    <chr>   <int> <dbl> <dbl>
#>  1 buggna      Blue-gr… Poliopt… L5156… Sapsuck… 2018…       1  42.5 -76.5
#>  2 blkvul      Black V… Coragyp… L3982… 14## Ha… 2018…       1  42.5 -76.5
#>  3 blkvul      Black V… Coragyp… L2866… Sapsuck… 2018…       1  42.5 -76.5
#>  4 blkvul      Black V… Coragyp… L2123… Stevens… 2018…       1  42.4 -76.4
#>  5 sora        Sora     Porzana… L5947… Ridgewa… 2018…       1  42.3 -76.4
#>  6 conwar      Connect… Opororn… L4463… Durland… 2018…       1  42.4 -76.4
#>  7 canwar      Canada … Cardell… L2817… Cornell… 2018…       1  42.5 -76.5
#>  8 blkvul      Black V… Coragyp… L1498… Sapsuck… 2018…       1  42.5 -76.5
#>  9 blkvul      Black V… Coragyp… L8779… Bluegra… 2018…       1  42.5 -76.5
#> 10 comloo      Common … Gavia i… L3530… Salt Po… 2018…       1  42.5 -76.5
#> # ... with 57 more rows, and 3 more variables: obsValid <lgl>,
#> #   obsReviewed <lgl>, locationPrivate <lgl>
```
…
