…
### Sightings at location determined by latitude/longitude

Search for bird occurrences by latitude and longitude point


```r
ebirdgeo(species = species_code('spinus tristis'), lat = 42, lng = -76)
```

```
## American Goldfinch (Spinus tristis): amegfi
```

```
## # A tibble: 21 x 12
##    speciesCode comName sciName locId locName obsDt howMany   lat   lng
##    <chr>       <chr>   <chr>   <chr> <chr>   <chr>   <int> <dbl> <dbl>
##  1 amegfi      Americ~ Spinus~ L425~ Melody~ 2019~       3  42.1 -75.8
##  2 amegfi      Americ~ Spinus~ L845~ 6106 P~ 2019~       8  41.9 -75.7
##  3 amegfi      Americ~ Spinus~ L861~ Maine,~ 2019~      18  42.2 -76.1
##  4 amegfi      Americ~ Spinus~ L282~ Otsini~ 2019~       3  42.1 -75.9
##  5 amegfi      Americ~ Spinus~ L338~ East N~ 2019~      13  42.0 -76.3
##  6 amegfi      Americ~ Spinus~ L184~ 325 De~ 2019~       1  42.2 -76.0
##  7 amegfi      Americ~ Spinus~ L505~ Boland~ 2019~       2  42.2 -75.9
##  8 amegfi      Americ~ Spinus~ L545~ 3393 V~ 2019~       1  41.9 -76.0
##  9 amegfi      Americ~ Spinus~ L193~ yard    2019~       1  42.1 -76.0
## 10 amegfi      Americ~ Spinus~ L465~ US-New~ 2019~       3  42.2 -75.9
## # ... with 11 more rows, and 3 more variables: obsValid <lgl>,
## #   obsReviewed <lgl>, locationPrivate <lgl>
```
…
## Nearest observations of a species

Search for a species' occurrences near a given latitude and longitude


```r
nearestobs(species_code('branta canadensis'), 42, -76)
```

```
## Canada Goose (Branta canadensis): cangoo
```

```
## # A tibble: 26 x 12
##    speciesCode comName sciName locId locName obsDt howMany   lat   lng
##    <chr>       <chr>   <chr>   <chr> <chr>   <chr>   <int> <dbl> <dbl>
##  1 cangoo      Canada~ Branta~ L186~ Cheri ~ 2019~       5  42.1 -75.9
##  2 cangoo      Canada~ Branta~ L854~ route ~ 2019~       3  42.1 -76.0
##  3 cangoo      Canada~ Branta~ L282~ Otsini~ 2019~      19  42.1 -75.9
##  4 cangoo      Canada~ Branta~ L505~ Boland~ 2019~       5  42.2 -75.9
##  5 cangoo      Canada~ Branta~ L625~ 4701 V~ 2019~      25  42.1 -76.0
##  6 cangoo      Canada~ Branta~ L166~ Chugnu~ 2019~       6  42.1 -76.0
##  7 cangoo      Canada~ Branta~ L339~ Chenan~ 2019~       4  42.1 -75.9
##  8 cangoo      Canada~ Branta~ L288~ Kmart ~ 2019~       4  42.1 -75.9
##  9 cangoo      Canada~ Branta~ L212~ Chenan~ 2019~      14  42.2 -75.8
## 10 cangoo      Canada~ Branta~ L809~ Port D~ 2019~      24  42.1 -75.9
## # ... with 16 more rows, and 3 more variables: obsValid <lgl>,
## #   obsReviewed <lgl>, locationPrivate <lgl>
```
### Recent observations at a region

Search for bird occurrences by region and species name


```r
ebirdregion(loc = 'US', species = species_code('Setophaga caerulescens'))
```

```
## Black-throated Blue Warbler (Setophaga caerulescens): btbwar
```

```
## # A tibble: 23 x 12
##    speciesCode comName sciName locId locName obsDt howMany   lat   lng
##    <chr>       <chr>   <chr>   <chr> <chr>   <chr>   <int> <dbl> <dbl>
##  1 btbwar      Black-~ Setoph~ L246~ Green ~ 2019~       1  26.5 -80.2
##  2 btbwar      Black-~ Setoph~ L200~ A. D. ~ 2019~       1  25.7 -80.3
##  3 btbwar      Black-~ Setoph~ L127~ Castel~ 2019~       1  25.6 -80.5
##  4 btbwar      Black-~ Setoph~ L127~ Greyno~ 2019~       1  25.9 -80.2
##  5 btbwar      Black-~ Setoph~ L454~ Gulfst~ 2019~       1  25.2 -80.4
##  6 btbwar      Black-~ Setoph~ L844~ Kristi~ 2019~       1  39.9 -74.8
##  7 btbwar      Black-~ Setoph~ L209~ Arch C~ 2019~       1  25.9 -80.2
##  8 btbwar      Black-~ Setoph~ L330~ Orchid~ 2019~       1  26.2 -80.3
##  9 btbwar      Black-~ Setoph~ L835~ My yard 2019~       1  39.9 -74.8
## 10 btbwar      Black-~ Setoph~ L110~ Enchan~ 2019~       1  25.9 -80.2
## # ... with 13 more rows, and 3 more variables: obsValid <lgl>,
## #   obsReviewed <lgl>, locationPrivate <lgl>
```
…
### Frequency of observations at hotspots or regions

Obtain historical frequencies of bird occurrences at a given hotspot


```r
ebirdfreq(loctype = 'hotspots', loc = 'L196159')
```

```
## # A tibble: 9,168 x 4
##    comName                     monthQt   frequency sampleSize
##    <chr>                       <chr>         <dbl>      <dbl>
##  1 Snow Goose                  January-1     0             33
##  2 Greater White-fronted Goose January-1     0             33
##  3 Cackling Goose              January-1     0             33
##  4 Canada Goose                January-1     0             33
##  5 Cackling/Canada Goose       January-1     0             33
##  6 Trumpeter Swan              January-1     0             33
##  7 Wood Duck                   January-1     0.152         33
##  8 Blue-winged Teal            January-1     0             33
##  9 Cinnamon Teal               January-1     0             33
## 10 Blue-winged/Cinnamon Teal   January-1     0             33
## # ... with 9,158 more rows
```

Same, but in wide format (for making bar charts)


```r
ebirdfreq(loctype = 'hotspots', loc = 'L196159', long = FALSE)
```

```
## # A tibble: 192 x 49
##    comName `January-1` `January-2` `January-3` `January-4` `February-1`
##    <chr>         <dbl>       <dbl>       <dbl>       <dbl>        <dbl>
##  1 Sample~      33         32          43         113           47     
##  2 Snow G~       0          0           0           0            0     
##  3 Greate~       0          0           0           0            0     
##  4 Cackli~       0          0           0           0            0     
##  5 Canada~       0          0.0312      0.0015      0.106        0.191 
##  6 Cackli~       0          0           0           0            0     
##  7 Trumpe~       0          0           0           0            0     
##  8 Wood D~       0.152      0.0312      0           0.0177       0.0426
##  9 Blue-w~       0          0           0           0            0     
## 10 Cinnam~       0          0           0           0            0     
## # ... with 182 more rows, and 43 more variables: `February-2` <dbl>,
## #   `February-3` <dbl>, `February-4` <dbl>, `March-1` <dbl>,
## #   `March-2` <dbl>, `March-3` <dbl>, `March-4` <dbl>, `April-1` <dbl>,
## #   `April-2` <dbl>, `April-3` <dbl>, `April-4` <dbl>, `May-1` <dbl>,
## #   `May-2` <dbl>, `May-3` <dbl>, `May-4` <dbl>, `June-1` <dbl>,
## #   `June-2` <dbl>, `June-3` <dbl>, `June-4` <dbl>, `July-1` <dbl>,
## #   `July-2` <dbl>, `July-3` <dbl>, `July-4` <dbl>, `August-1` <dbl>,
## #   `August-2` <dbl>, `August-3` <dbl>, `August-4` <dbl>,
## #   `September-1` <dbl>, `September-2` <dbl>, `September-3` <dbl>,
…
Obtain frequency data for a given state


```r
ebirdfreq(loctype = 'states', loc = 'CA-BC')
```

```
## # A tibble: 35,904 x 4
##    comName                                    monthQt  frequency sampleSize
##    <chr>                                      <chr>        <dbl>      <dbl>
##  1 Fulvous Whistling-Duck                     January~ 0              16822
##  2 Emperor Goose                              January~ 0.0015         16822
##  3 Snow Goose                                 January~ 0.0281         16822
##  4 Ross's Goose                               January~ 0              16822
##  5 Snow x Ross's Goose (hybrid)               January~ 0              16822
##  6 Snow/Ross's Goose                          January~ 0              16822
##  7 Swan Goose (Domestic type)                 January~ 0.0000594      16822
##  8 Graylag x Swan Goose (Domestic type) (hyb~ January~ 0              16822
##  9 Greater White-fronted Goose                January~ 0.00761        16822
## 10 Pink-footed Goose                          January~ 0              16822
## # ... with 35,894 more rows
```

Or county


```r
ebirdfreq(loctype = 'counties', loc = 'CA-BC-GV')
```

```
## # A tibble: 25,008 x 4
##    comName                         monthQt   frequency sampleSize
##    <chr>                           <chr>         <dbl>      <dbl>
##  1 Emperor Goose                   January-1   0             5389
##  2 Snow Goose                      January-1   0.0640        5389
##  3 Ross's Goose                    January-1   0             5389
##  4 Snow/Ross's Goose               January-1   0             5389
##  5 Greater White-fronted Goose     January-1   0.00557       5389
##  6 Brant                           January-1   0.0308        5389
##  7 Cackling Goose                  January-1   0.0163        5389
##  8 Canada Goose                    January-1   0.199         5389
##  9 Graylag x Canada Goose (hybrid) January-1   0             5389
## 10 Cackling/Canada Goose           January-1   0.00204       5389
## # ... with 24,998 more rows
```

Obtain frequency data within a range of years and months


```r
ebirdfreq(loctype = 'hotspots', loc = 'L196159', startyear = 2010,
          endyear = 2014, startmonth = 1, endmonth = 3)
```

```
## # A tibble: 3,792 x 4
##    comName                             monthQt   frequency sampleSize
##    <chr>                               <chr>         <dbl>      <dbl>
##  1 Canada Goose                        January-1       0           10
##  2 Wood Duck                           January-1       0.4         10
##  3 Northern Shoveler                   January-1       0.8         10
##  4 Gadwall                             January-1       0           10
##  5 Eurasian Wigeon                     January-1       0.4         10
##  6 American Wigeon                     January-1       1           10
##  7 Eurasian x American Wigeon (hybrid) January-1       0           10
##  8 Mallard                             January-1       1           10
##  9 Northern Pintail                    January-1       0           10
## 10 Green-winged Teal                   January-1       0           10
## # ... with 3,782 more rows
```


### Recent notable sightings

Search for notable sightings at a given latitude and longitude


```r
ebirdnotable(lat = 42, lng = -70)
```

```
## # A tibble: 1,093 x 12
##    speciesCode comName sciName locId locName obsDt howMany   lat   lng
##    <chr>       <chr>   <chr>   <chr> <chr>   <chr>   <int> <dbl> <dbl>
##  1 fiespa      Field ~ Spizel~ L862~ 372–47~ 2019~       1  42.4 -72.5
##  2 gwfgoo      Greate~ Anser ~ L109~ Northw~ 2019~       1  41.9 -72.7
##  3 whcspa      White-~ Zonotr~ L611~ Blair ~ 2019~       1  42.4 -71.2
##  4 thbmur      Thick-~ Uria l~ L468~ Seal R~ 2019~       1  43.0 -70.7
##  5 blkvul      Black ~ Coragy~ L862~ Blacks~ 2019~       2  42.0 -71.5
##  6 redkno      Red Kn~ Calidr~ L862~ Hammon~ 2019~       1  41.3 -72.5
##  7 redkno      Red Kn~ Calidr~ L862~ Hammon~ 2019~       1  41.3 -72.5
##  8 eurwig      Eurasi~ Mareca~ L249~ River ~ 2019~       1  43.4 -70.5
##  9 eurwig      Eurasi~ Mareca~ L249~ River ~ 2019~       1  43.4 -70.5
## 10 tunswa      Tundra~ Cygnus~ L115~ Wether~ 2019~       3  41.7 -72.6
## # ... with 1,083 more rows, and 3 more variables: obsValid <lgl>,
## #   obsReviewed <lgl>, locationPrivate <lgl>
```
…
```
## Error in ebirdhistoricobs(loc = "L196159", date = "2019-02-14", fieldSet = "full"): could not find function "ebirdhistoricobs"
```

### eBird taxonomy

Returns a data.frame of all species in the eBird taxonomy for the given parameter inputs


```r
ebirdtaxonomy()
```

```
## # A tibble: 16,248 x 14
##    sciName comName speciesCode category taxonOrder bandingCodes
##    <chr>   <chr>   <chr>       <chr>         <dbl> <chr>       
##  1 Struth~ Common~ ostric2     species           1 <NA>        
##  2 Struth~ Somali~ ostric3     species           6 <NA>        
##  3 Struth~ Common~ y00934      slash             7 <NA>        
##  4 Rhea a~ Greate~ grerhe1     species           8 <NA>        
##  5 Rhea p~ Lesser~ lesrhe2     species          14 <NA>        
##  6 Rhea p~ Lesser~ lesrhe4     issf             15 <NA>        
##  7 Rhea p~ Lesser~ lesrhe3     issf             18 <NA>        
##  8 Nothoc~ Tawny-~ tabtin1     species          19 <NA>        
##  9 Nothoc~ Highla~ higtin1     species          20 HITI        
## 10 Nothoc~ Highla~ higtin2     issf             21 <NA>        
## # ... with 16,238 more rows, and 8 more variables: comNameCodes <chr>,
## #   sciNameCodes <chr>, order <chr>, familyComName <chr>,
## #   familySciName <chr>, reportAs <chr>, extinct <lgl>, extinctYear <int>
```

Search for hybrid species only


```r
ebirdtaxonomy(cat = "hybrid")
```

```
## # A tibble: 415 x 11
##    sciName comName speciesCode category taxonOrder bandingCodes
##    <chr>   <chr>   <chr>       <chr>         <dbl> <chr>       
##  1 Dendro~ Spotte~ x00721      hybrid          219 <NA>        
##  2 Dendro~ Black-~ x00775      hybrid          224 <NA>        
##  3 Dendro~ Black-~ x00875      hybrid          226 <NA>        
##  4 Anser ~ Snow x~ sxrgoo1     hybrid          243 SRGH        
##  5 Anser ~ Grayla~ x00776      hybrid          251 <NA>        
##  6 Anser ~ Bar-he~ x00755      hybrid          259 <NA>        
##  7 Anser ~ Snow x~ x00627      hybrid          260 <NA>        
##  8 Anser ~ Snow G~ x00685      hybrid          280 <NA>        
##  9 Anser ~ Pink-f~ x00756      hybrid          282 <NA>        
## 10 Anser ~ Greate~ x00757      hybrid          283 <NA>        
## # ... with 405 more rows, and 5 more variables: comNameCodes <chr>,
## #   sciNameCodes <chr>, order <chr>, familyComName <chr>,
## #   familySciName <chr>
```
…
