…
### Sightings at location determined by latitude/longitude

Search for bird occurrences by latitude and longitude point


```r
ebirdgeo(species = species_code('spinus tristis'), lat = 42, lng = -76)
```

```
## American Goldfinch (Spinus tristis): amegfi
```

```
## # A tibble: 45 x 12
##    speciesCode comName  sciName  locId locName   obsDt howMany   lat   lng
##    <chr>       <chr>    <chr>    <chr> <chr>     <chr>   <int> <dbl> <dbl>
##  1 amegfi      America… Spinus … L495… Binghamt… 2018…       1  42.1 -76.0
##  2 amegfi      America… Spinus … L527… R Tee Go… 2018…       1  42.2 -75.9
##  3 amegfi      America… Spinus … L795… US-New Y… 2018…       7  42.1 -76.0
##  4 amegfi      America… Spinus … L978… Murphys … 2018…       5  42.1 -76.0
##  5 amegfi      America… Spinus … L209… Aquaterr… 2018…       9  42.0 -75.9
##  6 amegfi      America… Spinus … L320… Hillcres… 2018…       1  42.2 -75.9
##  7 amegfi      America… Spinus … L285… Camp Sus… 2018…       1  42.0 -75.9
##  8 amegfi      America… Spinus … L207… Workwalk  2018…       1  42.1 -75.9
##  9 amegfi      America… Spinus … L519… IBM Glen… 2018…       3  42.1 -76.0
## 10 amegfi      America… Spinus … L501… William … 2018…       2  42.1 -76.0
## # ... with 35 more rows, and 3 more variables: obsValid <lgl>,
## #   obsReviewed <lgl>, locationPrivate <lgl>
```
…
### Recent sightings from location IDs

Search for bird occurrences for in a hotspot using its ID


```r
ebirdregion(loc = 'L99381')
```

```
## # A tibble: 63 x 12
##    speciesCode comName   sciName   locId locName obsDt howMany   lat   lng
##    <chr>       <chr>     <chr>     <chr> <chr>   <chr>   <int> <dbl> <dbl>
##  1 cangoo      Canada G… Branta c… L993… Stewar… 2018…      25  42.5 -76.5
##  2 mallar3     Mallard   Anas pla… L993… Stewar… 2018…      40  42.5 -76.5
##  3 commer      Common M… Mergus m… L993… Stewar… 2018…      16  42.5 -76.5
##  4 rocpig      Rock Pig… Columba … L993… Stewar… 2018…       8  42.5 -76.5
##  5 ribgul      Ring-bil… Larus de… L993… Stewar… 2018…      80  42.5 -76.5
##  6 hergul      Herring … Larus ar… L993… Stewar… 2018…      25  42.5 -76.5
##  7 lbbgul      Lesser B… Larus fu… L993… Stewar… 2018…       1  42.5 -76.5
##  8 gbbgul      Great Bl… Larus ma… L993… Stewar… 2018…       8  42.5 -76.5
##  9 doccor      Double-c… Phalacro… L993… Stewar… 2018…     600  42.5 -76.5
## 10 grbher3     Great Bl… Ardea he… L993… Stewar… 2018…       2  42.5 -76.5
## # ... with 53 more rows, and 3 more variables: obsValid <lgl>,
## #   obsReviewed <lgl>, locationPrivate <lgl>
```
…
### Recent observations at a region

Search for bird occurrences by region and species name


```r
ebirdregion(loc = 'US', species = species_code('Setophaga caerulescens'))
```

```
## Black-throated Blue Warbler (Setophaga caerulescens): btbwar
```

```
## # A tibble: 1,044 x 12
##    speciesCode comName  sciName  locId  locName  obsDt howMany   lat   lng
##    <chr>       <chr>    <chr>    <chr>  <chr>    <chr>   <int> <dbl> <dbl>
##  1 btbwar      Black-t… Setopha… L1334… Ox Bow … 2018…       1  41.6 -85.9
##  2 btbwar      Black-t… Setopha… L2785… Blue Sp… 2018…       1  28.9 -81.3
##  3 btbwar      Black-t… Setopha… L2139… CMCH     2018…       2  39.1 -74.8
##  4 btbwar      Black-t… Setopha… L1301… Ashland… 2018…       1  39.8 -75.7
##  5 btbwar      Black-t… Setopha… L1298… Lake On… 2018…       1  40.5 -75.9
##  6 btbwar      Black-t… Setopha… L5044… John He… 2018…       4  39.9 -75.3
##  7 btbwar      Black-t… Setopha… L5974… Cape Is… 2018…       1  38.9 -75.0
##  8 btbwar      Black-t… Setopha… L6960… Dunham … 2018…       1  40.7 -74.6
##  9 btbwar      Black-t… Setopha… L1657… Black R… 2018…       1  40.2 -75.5
## 10 btbwar      Black-t… Setopha… L8654… Acadia … 2018…       1  44.3 -68.1
## # ... with 1,034 more rows, and 3 more variables: obsValid <lgl>,
## #   obsReviewed <lgl>, locationPrivate <lgl>
```
…
### Frequency of observations at hotspots or regions

Obtain historical frequencies of bird occurrences at a given hotspot


```r
ebirdfreq(loctype = 'hotspots', loc = 'L196159')
```

```
## # A tibble: 9,072 x 4
##    comName                     monthQt   frequency sampleSize
##    <chr>                       <chr>         <dbl>      <dbl>
##  1 Snow Goose                  January-1     0.           27.
##  2 Greater White-fronted Goose January-1     0.           27.
##  3 Cackling Goose              January-1     0.           27.
##  4 Canada Goose                January-1     0.           27.
##  5 Cackling/Canada Goose       January-1     0.           27.
##  6 Trumpeter Swan              January-1     0.           27.
##  7 Wood Duck                   January-1     0.185        27.
##  8 Blue-winged Teal            January-1     0.           27.
##  9 Cinnamon Teal               January-1     0.           27.
## 10 Blue-winged/Cinnamon Teal   January-1     0.           27.
## # ... with 9,062 more rows
```

Same, but in wide format (for making bar charts)


```r
ebirdfreq(loctype = 'hotspots', loc = 'L196159', long = FALSE)
```

```
## # A tibble: 190 x 49
##    comName    `January-1` `January-2` `January-3` `January-4` `February-1`
##    <chr>            <dbl>       <dbl>       <dbl>       <dbl>        <dbl>
##  1 Sample Si…      27.0       27.0       39.0        102.          41.0   
##  2 Snow Goose       0.         0.         0.           0.           0.    
##  3 Greater W…       0.         0.         0.           0.           0.    
##  4 Cackling …       0.         0.         0.           0.           0.    
##  5 Canada Go…       0.         0.         0.00150      0.0980       0.220 
##  6 Cackling/…       0.         0.         0.           0.           0.    
##  7 Trumpeter…       0.         0.         0.           0.           0.    
##  8 Wood Duck        0.185      0.0370     0.           0.0196       0.0488
##  9 Blue-wing…       0.         0.         0.           0.           0.    
## 10 Cinnamon …       0.         0.         0.           0.           0.    
## # ... with 180 more rows, and 43 more variables: `February-2` <dbl>,
## #   `February-3` <dbl>, `February-4` <dbl>, `March-1` <dbl>,
## #   `March-2` <dbl>, `March-3` <dbl>, `March-4` <dbl>, `April-1` <dbl>,
## #   `April-2` <dbl>, `April-3` <dbl>, `April-4` <dbl>, `May-1` <dbl>,
## #   `May-2` <dbl>, `May-3` <dbl>, `May-4` <dbl>, `June-1` <dbl>,
## #   `June-2` <dbl>, `June-3` <dbl>, `June-4` <dbl>, `July-1` <dbl>,
## #   `July-2` <dbl>, `July-3` <dbl>, `July-4` <dbl>, `August-1` <dbl>,
## #   `August-2` <dbl>, `August-3` <dbl>, `August-4` <dbl>,
## #   `September-1` <dbl>, `September-2` <dbl>, `September-3` <dbl>,
…
Obtain frequency data for a given state


```r
ebirdfreq(loctype = 'states', loc = 'CA-BC')
```

```
## # A tibble: 35,424 x 4
##    comName                                   monthQt  frequency sampleSize
##    <chr>                                     <chr>        <dbl>      <dbl>
##  1 Fulvous Whistling-Duck                    January… 0.            14197.
##  2 Emperor Goose                             January… 0.00150       14197.
##  3 Snow Goose                                January… 0.0279        14197.
##  4 Ross's Goose                              January… 0.            14197.
##  5 Snow x Ross's Goose (hybrid)              January… 0.            14197.
##  6 Snow/Ross's Goose                         January… 0.            14197.
##  7 Swan Goose (Domestic type)                January… 0.0000704     14197.
##  8 Graylag x Swan Goose (Domestic type) (hy… January… 0.            14197.
##  9 Greater White-fronted Goose               January… 0.00768       14197.
## 10 Pink-footed Goose                         January… 0.            14197.
## # ... with 35,414 more rows
```

Or county


```r
ebirdfreq(loctype = 'counties', loc = 'CA-BC-GV')
```

```
## # A tibble: 24,624 x 4
##    comName                         monthQt   frequency sampleSize
##    <chr>                           <chr>         <dbl>      <dbl>
##  1 Emperor Goose                   January-1   0.           4714.
##  2 Snow Goose                      January-1   0.0653       4714.
##  3 Ross's Goose                    January-1   0.           4714.
##  4 Snow/Ross's Goose               January-1   0.           4714.
##  5 Greater White-fronted Goose     January-1   0.00530      4714.
##  6 Brant                           January-1   0.0255       4714.
##  7 Cackling Goose                  January-1   0.0119       4714.
##  8 Canada Goose                    January-1   0.200        4714.
##  9 Graylag x Canada Goose (hybrid) January-1   0.           4714.
## 10 Cackling/Canada Goose           January-1   0.00170      4714.
## # ... with 24,614 more rows
```

Obtain frequency data within a range of years and months


```r
ebirdfreq(loctype = 'hotspots', loc = 'L196159', startyear = 2010,
          endyear = 2014, startmonth = 1, endmonth = 3)
```

```
## # A tibble: 3,792 x 4
##    comName                             monthQt   frequency sampleSize
##    <chr>                               <chr>         <dbl>      <dbl>
##  1 Canada Goose                        January-1     0.           10.
##  2 Wood Duck                           January-1     0.400        10.
##  3 Northern Shoveler                   January-1     0.800        10.
##  4 Gadwall                             January-1     0.           10.
##  5 Eurasian Wigeon                     January-1     0.400        10.
##  6 American Wigeon                     January-1     1.00         10.
##  7 Eurasian x American Wigeon (hybrid) January-1     0.           10.
##  8 Mallard                             January-1     1.00         10.
##  9 Northern Pintail                    January-1     0.           10.
## 10 Green-winged Teal                   January-1     0.           10.
## # ... with 3,782 more rows
```


### Recent notable sightings

Search for notable sightings at a given latitude and longitude


```r
ebirdnotable(lat = 42, lng = -70)
```

```
## # A tibble: 773 x 12
##    speciesCode comName  sciName  locId locName   obsDt howMany   lat   lng
##    <chr>       <chr>    <chr>    <chr> <chr>     <chr>   <int> <dbl> <dbl>
##  1 horlar      Horned … Eremoph… L278… Rye Harb… 2018…       1  43.0 -70.7
##  2 redcro      Red Cro… Loxia c… L207… Moose Hi… 2018…       8  42.1 -71.2
##  3 ycnher      Yellow-… Nyctana… L382… Lake War… 2018…       1  42.4 -72.6
##  4 sancra      Sandhil… Antigon… L463… Highland… 2018…       1  43.9 -70.0
##  5 libher      Little … Egretta… L613… Colt SP   2018…       1  41.7 -71.3
##  6 eawpew      Eastern… Contopu… L724… 514 Racc… 2018…       1  43.4 -71.8
##  7 conwar      Connect… Opororn… L464… Westboro… 2018…       1  42.3 -71.6
##  8 ameoys      America… Haemato… L353… Scarboro… 2018…       2  43.5 -70.3
##  9 canwar      Canada … Cardell… L594… Marblehe… 2018…       1  42.5 -70.8
## 10 ycnher      Yellow-… Nyctana… L382… Lake War… 2018…       1  42.4 -72.6
## # ... with 763 more rows, and 3 more variables: obsValid <lgl>,
## #   obsReviewed <lgl>, locationPrivate <lgl>
```

or a region


```r
ebirdnotable(locID = 'US-NY-109')
```

```
## # A tibble: 67 x 12
##    speciesCode comName  sciName  locId  locName  obsDt howMany   lat   lng
##    <chr>       <chr>    <chr>    <chr>  <chr>    <chr>   <int> <dbl> <dbl>
##  1 buggna      Blue-gr… Poliopt… L5156… Sapsuck… 2018…       1  42.5 -76.5
##  2 blkvul      Black V… Coragyp… L3982… 14## Ha… 2018…       1  42.5 -76.5
##  3 blkvul      Black V… Coragyp… L2866… Sapsuck… 2018…       1  42.5 -76.5
##  4 blkvul      Black V… Coragyp… L2123… Stevens… 2018…       1  42.4 -76.4
##  5 sora        Sora     Porzana… L5947… Ridgewa… 2018…       1  42.3 -76.4
##  6 conwar      Connect… Opororn… L4463… Durland… 2018…       1  42.4 -76.4
##  7 canwar      Canada … Cardell… L2817… Cornell… 2018…       1  42.5 -76.5
##  8 blkvul      Black V… Coragyp… L1498… Sapsuck… 2018…       1  42.5 -76.5
##  9 blkvul      Black V… Coragyp… L8779… Bluegra… 2018…       1  42.5 -76.5
## 10 comloo      Common … Gavia i… L3530… Salt Po… 2018…       1  42.5 -76.5
## # ... with 57 more rows, and 3 more variables: obsValid <lgl>,
## #   obsReviewed <lgl>, locationPrivate <lgl>
```


### eBird taxonomy

Returns a data.frame of all species in the eBird taxonomy for the given parameter inputs


```r
ebirdtaxonomy()
```

```
## # A tibble: 16,248 x 14
##    sciName        comName     speciesCode category taxonOrder bandingCodes
##    <chr>          <chr>       <chr>       <chr>         <dbl> <chr>       
##  1 Struthio came… Common Ost… ostric2     species          1. <NA>        
##  2 Struthio moly… Somali Ost… ostric3     species          6. <NA>        
##  3 Struthio came… Common/Som… y00934      slash            7. <NA>        
##  4 Rhea americana Greater Rh… grerhe1     species          8. <NA>        
##  5 Rhea pennata   Lesser Rhea lesrhe2     species         14. <NA>        
##  6 Rhea pennata … Lesser Rhe… lesrhe4     issf            15. <NA>        
##  7 Rhea pennata … Lesser Rhe… lesrhe3     issf            18. <NA>        
##  8 Nothocercus j… Tawny-brea… tabtin1     species         19. <NA>        
##  9 Nothocercus b… Highland T… higtin1     species         20. HITI        
## 10 Nothocercus b… Highland T… higtin2     issf            21. <NA>        
## # ... with 16,238 more rows, and 8 more variables: comNameCodes <chr>,
## #   sciNameCodes <chr>, order <chr>, familyComName <chr>,
## #   familySciName <chr>, reportAs <chr>, extinct <lgl>, extinctYear <int>
```

Search for hybrid species only


```r
ebirdtaxonomy(cat = "hybrid")
```

```
## # A tibble: 415 x 11
##    sciName      comName       speciesCode category taxonOrder bandingCodes
##    <chr>        <chr>         <chr>       <chr>         <dbl> <chr>       
##  1 Dendrocygna… Spotted x Wh… x00721      hybrid         219. <NA>        
##  2 Dendrocygna… Black-bellie… x00775      hybrid         224. <NA>        
##  3 Dendrocygna… Black-bellie… x00875      hybrid         226. <NA>        
##  4 Anser caeru… Snow x Ross'… sxrgoo1     hybrid         243. SRGH        
##  5 Anser anser… Graylag x Sw… x00776      hybrid         251. <NA>        
##  6 Anser indic… Bar-headed x… x00755      hybrid         259. <NA>        
##  7 Anser caeru… Snow x Great… x00627      hybrid         260. <NA>        
##  8 Anser caeru… Snow Goose x… x00685      hybrid         280. <NA>        
##  9 Anser brach… Pink-footed … x00756      hybrid         282. <NA>        
## 10 Anser albif… Greater Whit… x00757      hybrid         283. <NA>        
## # ... with 405 more rows, and 5 more variables: comNameCodes <chr>,
## #   sciNameCodes <chr>, order <chr>, familyComName <chr>,
## #   familySciName <chr>
```
…
